counter_shiftreg/shift_reg/shift_reg/shift_reg_waveform.vcd
$date
     Mar 21, 2017       19:48:38
$end

$version
 SystemC 2.3.1-Accellera --- Mar 10 2017 01:32:33
$end

$timescale
     1 ps
$end

$scope module SystemC $end
$var wire    1  aaaaa  clock       $end
$var wire    1  aaaab  reset_n       $end
$var wire    1  aaaac  areset_n       $end
$var wire    1  aaaad  dir       $end
$var wire    1  aaaae  in       $end
$var wire    8  aaaaf  data_out [7:0]  $end
$var wire    1  aaaag  out       $end
$upscope $end
$enddefinitions  $end

$comment
All initial values are dumped below at time 0 sec = 0 timescale units.
$end

$dumpvars
1aaaaa
1aaaab
0aaaac
0aaaad
0aaaae
b0 aaaaf
0aaaag
$end

#2500
0aaaaa

#5000
1aaaaa
1aaaac

#7500
0aaaaa

#9000
1aaaae

#10000
1aaaaa

#12500
0aaaaa

#15000
1aaaaa
b1 aaaaf

#17500
0aaaaa

#20000
1aaaaa
b11 aaaaf

#22000
0aaaae

#22500
0aaaaa

#25000
1aaaaa
b111 aaaaf

#27500
0aaaaa

#30000
1aaaaa
b1110 aaaaf

#32500
0aaaaa

#35000
1aaaaa
b11100 aaaaf

#37500
0aaaaa

#40000
1aaaaa
b111000 aaaaf

#42500
0aaaaa

#45000
1aaaaa
b1110000 aaaaf

#47000
0aaaab

#47500
0aaaaa

#50000
1aaaaa
b0 aaaaf

#52500
0aaaaa

#55000
1aaaaa
1aaaab

#57500
0aaaaa

#60000
1aaaaa
1aaaad
1aaaae

#62500
0aaaaa

#65000
1aaaaa
b10000000 aaaaf

#67500
0aaaaa

#70000
1aaaaa
b11000000 aaaaf

#72500
0aaaaa

#75000
1aaaaa
0aaaae
b11100000 aaaaf

#77500
0aaaaa

#80000
1aaaaa
b1110000 aaaaf

#82500
0aaaaa

#85000
1aaaaa
b111000 aaaaf

#87500
0aaaaa

#90000
1aaaaa
b11100 aaaaf

#92500
0aaaaa

#95000
1aaaaa
b1110 aaaaf

#97500
0aaaaa

#100000
1aaaaa
b111 aaaaf
1aaaag

#102500
0aaaaa

#105000
1aaaaa
b11 aaaaf

#107500
0aaaaa

#110000
1aaaaa
b1 aaaaf

#112500
0aaaaa

#115000
1aaaaa
b0 aaaaf
0aaaag

